EnvironmentalAnalysis
…
#> 
#> ── NASA/POWER Source Native Resolution Hourly Data  ────────────────────────────
#> Dates (month/day/year): 01/01/2023 through 05/01/2023 in LST
#> Location: Latitude -28.0638 Longitude -53.6969
#> Elevation from MERRA-2: Average for 0.5 x 0.625 degree lat/lon region = 429.95
#> meters
#> The value for missing source data that cannot be computed or is outside of the
#> sources availability range: NA
#> Parameter(s):
#> ────────────────────────────────────────────────────────────────────────────────
#> Parameters:
#> T2M MERRA-2 Temperature at 2 Meters (C) ; RH2M MERRA-2 Relative Humidity at 2
#> Meters (%) ; PRECTOTCORR MERRA-2 Precipitation Corrected (mm/hour)
#> ────────────────────────────────────────────────────────────────────────────────
#> # A tibble: 2,904 × 8
#>     YEAR    MO    DY    HR   T2M  RH2M PRECTOTCORR DELTAT
#>    <dbl> <dbl> <dbl> <dbl> <dbl> <dbl>       <dbl>  <dbl>
#>  1  2023     1     1     0  21.3  78.0        0.02   4.01
#>  2  2023     1     1     1  21.1  79.9        0.97   3.60
#>  3  2023     1     1     2  21.0  81.6        2.92   3.27
#>  4  2023     1     1     3  21.0  82.4        2.14   3.12
#>  5  2023     1     1     4  21.0  83.6        1.32   2.88
#>  6  2023     1     1     5  22.0  80.1        0.4    3.60
#>  7  2023     1     1     6  23.4  75.7        0.14   4.53
#>  8  2023     1     1     7  25.6  67.0        1.26   6.60
#>  9  2023     1     1     8  28.4  56.1        3.07   9.62
#> 10  2023     1     1     9  31.0  48.5        2.92  12.2 
#> # ℹ 2,894 more rows
…
